%YAML 1.1
%TAG !u! tag:unity3d.com,2011:
--- !u!1 &3658234756721730986
GameObject:
  m_ObjectHideFlags: 0
  m_CorrespondingSourceObject: {fileID: 0}
  m_PrefabInstance: {fileID: 0}
  m_PrefabAsset: {fileID: 0}
  serializedVersion: 6
  m_Component:
  - component: {fileID: 3658234756721730987}
  - component: {fileID: 3658234756721730965}
  - component: {fileID: 3658234756721730964}
  m_Layer: 0
  m_Name: snd_amb_bird_01
  m_TagString: Untagged
  m_Icon: {fileID: 0}
  m_NavMeshLayer: 0
  m_StaticEditorFlags: 0
  m_IsActive: 1
--- !u!4 &3658234756721730987
Transform:
  m_ObjectHideFlags: 0
  m_CorrespondingSourceObject: {fileID: 0}
  m_PrefabInstance: {fileID: 0}
  m_PrefabAsset: {fileID: 0}
  m_GameObject: {fileID: 3658234756721730986}
  m_LocalRotation: {x: -0, y: -0, z: -0, w: 1}
  m_LocalPosition: {x: 18.56, y: 15.48, z: 80.19}
  m_LocalScale: {x: 1, y: 1, z: 1}
  m_Children: []
  m_Father: {fileID: 0}
  m_RootOrder: 0
  m_LocalEulerAnglesHint: {x: 0, y: 0, z: 0}
--- !u!82 &3658234756721730965
AudioSource:
  m_ObjectHideFlags: 0
  m_CorrespondingSourceObject: {fileID: 0}
  m_PrefabInstance: {fileID: 0}
  m_PrefabAsset: {fileID: 0}
  m_GameObject: {fileID: 3658234756721730986}
  m_Enabled: 1
  serializedVersion: 4
  OutputAudioMixerGroup: {fileID: -6253509834880646390, guid: b4c7aaae13449c745828a8a92f3c5787,
    type: 2}
  m_audioClip: {fileID: 0}
  m_PlayOnAwake: 1
  m_Volume: 1
  m_Pitch: 1
  Loop: 0
  Mute: 0
  Spatialize: 0
  SpatializePostEffects: 0
  Priority: 128
  DopplerLevel: 1
  MinDistance: 1
  MaxDistance: 30
  Pan2D: 0
  rolloffMode: 2
  BypassEffects: 0
  BypassListenerEffects: 0
  BypassReverbZones: 0
  rolloffCustomCurve:
    serializedVersion: 2
    m_Curve:
    - serializedVersion: 3
      time: 0.033333335
      value: 1
      inSlope: -30.011993
      outSlope: -30.011993
      tangentMode: 0
      weightedMode: 0
      inWeight: 0
      outWeight: 0
    - serializedVersion: 3
      time: 0.06666667
      value: 0.5
      inSlope: -7.5029984
      outSlope: -7.5029984
      tangentMode: 0
      weightedMode: 0
      inWeight: 0
      outWeight: 0
    - serializedVersion: 3
      time: 0.13333334
      value: 0.25
      inSlope: -1.8757496
      outSlope: -1.8757496
      tangentMode: 0
      weightedMode: 0
      inWeight: 0
      outWeight: 0
    - serializedVersion: 3
      time: 0.26666668
      value: 0.125
      inSlope: -0.4689374
      outSlope: -0.4689374
      tangentMode: 0
      weightedMode: 0
      inWeight: 0
      outWeight: 0
    - serializedVersion: 3
      time: 0.53333336
      value: 0.0625
      inSlope: -0.11723435
      outSlope: -0.11723435
      tangentMode: 0
      weightedMode: 0
      inWeight: 0
      outWeight: 0
    - serializedVersion: 3
      time: 1
      value: 0
      inSlope: -0.033346657
      outSlope: -0.033346657
      tangentMode: 0
      weightedMode: 0
      inWeight: 0
      outWeight: 0
    m_PreInfinity: 2
    m_PostInfinity: 2
    m_RotationOrder: 4
  panLevelCustomCurve:
    serializedVersion: 2
    m_Curve:
    - serializedVersion: 3
      time: 0
      value: 1
      inSlope: 0
      outSlope: 0
      tangentMode: 0
      weightedMode: 0
      inWeight: 0.33333334
      outWeight: 0.33333334
    m_PreInfinity: 2
    m_PostInfinity: 2
    m_RotationOrder: 4
  spreadCustomCurve:
    serializedVersion: 2
    m_Curve:
    - serializedVersion: 3
      time: 0
      value: 0.38290405
      inSlope: -0.47811666
      outSlope: -0.47811666
      tangentMode: 0
      weightedMode: 0
      inWeight: 0.12019373
      outWeight: 0.07752764
    - serializedVersion: 3
      time: 0.97729343
      value: 0.06561279
      inSlope: -0.35739857
      outSlope: -0.35739857
      tangentMode: 0
      weightedMode: 0
      inWeight: 0.12879953
      outWeight: 0.33333334
    m_PreInfinity: 2
    m_PostInfinity: 2
    m_RotationOrder: 4
  reverbZoneMixCustomCurve:
    serializedVersion: 2
    m_Curve:
    - serializedVersion: 3
      time: 0
      value: 1
      inSlope: 0
      outSlope: 0
      tangentMode: 0
      weightedMode: 0
      inWeight: 0.33333334
      outWeight: 0.33333334
    m_PreInfinity: 2
    m_PostInfinity: 2
    m_RotationOrder: 4
--- !u!114 &3658234756721730964
MonoBehaviour:
  m_ObjectHideFlags: 0
  m_CorrespondingSourceObject: {fileID: 0}
  m_PrefabInstance: {fileID: 0}
  m_PrefabAsset: {fileID: 0}
  m_GameObject: {fileID: 3658234756721730986}
  m_Enabled: 1
  m_EditorHideFlags: 0
  m_Script: {fileID: 11500000, guid: 43fb7dbcb6033514887401f84e0ff95e, type: 3}
  m_Name: 
  m_EditorClassIdentifier: 
  isLooping: 1
  RandomClips:
  - {fileID: 8300000, guid: 66739f21938c1de4d9fafa33e9c8c9ba, type: 3}
  - {fileID: 8300000, guid: cacee1eaf976429418ca9edf8f98a9f9, type: 3}
  - {fileID: 8300000, guid: 07471c9c2ea1f3041a01627244dcc81e, type: 3}
  - {fileID: 8300000, guid: 70391af05be89e5488b84bf2612e1263, type: 3}
  AudioSource: {fileID: 3658234756721730965}
  RandomTime: 25
  minRandomTime: -4
  maxRandomTime: 4
  minVolume: 1
  maxVolume: 1
  minPitch: 1
  maxPitch: 1
  PreDelay: 10
  minPreDelay: -7
  maxPreDelay: 6
  drawSphereGizmo: 1
  SPHERE_COLOR: {r: 1, g: 0, b: 0, a: 0.4}
