%YAML 1.1
%TAG !u! tag:unity3d.com,2011:
--- !u!1045 &1
EditorBuildSettings:
  m_ObjectHideFlags: 0
  serializedVersion: 2
  m_Scenes:
  - enabled: 1
    path: Assets/Scenes/Start - Front End.unity
    guid: 57df1e417250bc247976c2c0dc088efe
  - enabled: 1
    path: Assets/Scenes/Level01.unity
    guid: ed46e53182fb08b4482fd3c4a75bc631
  - enabled: 1
    path: Assets/Scenes/Level02.unity
    guid: bfc86215544d6ab42b838135fdd17f21
  m_configObjects: {}
